{
  "project_info": {
    "project_number": "852627795578",
    "project_id": "omahewane-77f2c",
    "storage_bucket": "omahewane-77f2c.appspot.com"
  },
  "client": [
    {
      "client_info": {
        "mobilesdk_app_id": "1:852627795578:android:83c222f233627b576055c3",
        "android_client_info": {
          "package_name": "com.challenge_6"
        }
      },
      "oauth_client": [
        {
          "client_id": "852627795578-vlhu1s75so611fd0hcdi5aok8u20atq8.apps.googleusercontent.com",
          "client_type": 3
        }
      ],
      "api_key": [
        {
          "current_key": "AIzaSyAFh8wTW5zqLCjmSPWiKtd_S4eL_f9OWf8"
        }
      ],
      "services": {
        "appinvite_service": {
          "other_platform_oauth_client": [
            {
              "client_id": "852627795578-vlhu1s75so611fd0hcdi5aok8u20atq8.apps.googleusercontent.com",
              "client_type": 3
            }
          ]
        }
      }
    },
    {
      "client_info": {
        "mobilesdk_app_id": "1:852627795578:android:2bdd483f1c82d8df6055c3",
        "android_client_info": {
          "package_name": "com.famaplace.myapp"
        }
      },
      "oauth_client": [
        {
          "client_id": "852627795578-m0cpn2runtm78v7hi4leedh1ru207op7.apps.googleusercontent.com",
          "client_type": 1,
          "android_info": {
            "package_name": "com.famaplace.myapp",
            "certificate_hash": "5e8f16062ea3cd2c4a0d547876baa6f38cabf625"
          }
        },
        {
          "client_id": "852627795578-vlhu1s75so611fd0hcdi5aok8u20atq8.apps.googleusercontent.com",
          "client_type": 3
        }
      ],
      "api_key": [
        {
          "current_key": "AIzaSyAFh8wTW5zqLCjmSPWiKtd_S4eL_f9OWf8"
        }
      ],
      "services": {
        "appinvite_service": {
          "other_platform_oauth_client": [
            {
              "client_id": "852627795578-vlhu1s75so611fd0hcdi5aok8u20atq8.apps.googleusercontent.com",
              "client_type": 3
            }
          ]
        }
      }
    }
  ],
  "configuration_version": "1"
}